…
Looks like we have janus effects (positive and negative associations depending on modeling strategy) in both. Not only that, it looks like you can achieve nominal statistical significance depending on model specification in both cases.

To get an idea of what might be causing this, let's take a look at the confounder analysis.

vibration_output[['confounder_analysis']] 

## # A tibble: 340 x 8
##    effect group term            estimate std.error statistic     sdmin     sdmax
##    <chr>  <chr> <chr>              <dbl>     <dbl>     <dbl>     <dbl>     <dbl>
##  1 fixed  <NA>  (Intercept)    0.00479    0.000205    23.4    0.00459    5.00e-3
##  2 fixed  <NA>  RIDAGEYR      -0.000488   0.000472    -1.03  -0.000960  -1.57e-5
##  3 fixed  <NA>  male           0.000731   0.000584     1.25   0.000147   1.32e-3
##  4 fixed  <NA>  SES_LEVEL      0.000285   0.000609     0.468 -0.000324   8.94e-4
##  5 fixed  <NA>  education      0.000885   0.000614     1.44   0.000270   1.50e-3
##  6 fixed  <NA>  RIDRETH1       0.0000865  0.000518     0.167 -0.000431   6.04e-4
##  7 fixed  <NA>  BMXBMI        -0.00415    0.000625    -6.65  -0.00478   -3.53e-3
##  8 fixed  <NA>  any_cad       -0.000648   0.000541    -1.20  -0.00119   -1.07e-4
##  9 fixed  <NA>  any_family_c… -0.000271   0.000710    -0.382 -0.000981   4.39e-4
## 10 fixed  <NA>  any_ht        -0.000584   0.000553    -1.06  -0.00114   -3.10e-5
## # … with 330 more rows
…
